{
    "/publish/css/alpha-iris-sliders-admin.css": "/publish/css/alpha-iris-sliders-admin.css",
    "/publish/css/alpha-iris-sliders.css": "/publish/css/alpha-iris-sliders.css",
    "/publish/js/alpha-iris-sliders-admin.js": "/publish/js/alpha-iris-sliders-admin.js",
    "/publish/js/alpha-iris-sliders.js": "/publish/js/alpha-iris-sliders.js"
}
